{
  "transactions": [{
    "hash": "10db8fd58a9420e72a680dba9f500c96df783b902a75d1e9f13bba63ef0195b4",
    "time": "2022-01-26T20:49:38.000Z",
    "from_account": 34036,
    "from_address": "oEsfumnCLLUSjHEopFtgvnoDMMVWoJKv",
    "to_account": 6654,
    "to_address": "4BhEL0WseCSNj3H75CiFM1XtfDTPqAPC",
    "token": "USDR",
    "amount": 200,
    "chain_type": "transactions",
    "chain_network": "main",
    "id": 745378,
    "fields": {
      "hash": "Hash",
      "time": "Time",
      "from_account": "From account",
      "from_address": "From address",
      "to_account": "To account",
      "to_address": "To address",
      "token": "Token",
      "amount": "Amount",
      "id": "Id"
    },
    "_links": {
      "self": {
        "href": "https://stage.relictum.pro/cabinet?r=transactions%2Fview&hash=10db8fd58a9420e72a680dba9f500c96df783b902a75d1e9f13bba63ef0195b4"
      },
      "from": {
        "href": "https://stage.relictum.pro/cabinet?r=addresses%2Fview&hash=oEsfumnCLLUSjHEopFtgvnoDMMVWoJKv"
      },
      "to": {
        "href": "https://stage.relictum.pro/cabinet?r=addresses%2Fview&hash=4BhEL0WseCSNj3H75CiFM1XtfDTPqAPC"
      }
    }
  }, {
    "hash": "bb848fa03f188ce12c563d0553d550d2d6fe64829e8c05a9d9af4fbda0117995",
    "time": "2022-01-26T20:40:29.000Z",
    "from_account": 14655,
    "from_address": "lmmktxM2SBEHyaR1mnnluyN3TCFK4hX7",
    "to_account": 34036,
    "to_address": "oEsfumnCLLUSjHEopFtgvnoDMMVWoJKv",
    "token": "USDR",
    "amount": 200,
    "chain_type": "transactions",
    "chain_network": "main",
    "id": 745377,
    "fields": {
      "hash": "Hash",
      "time": "Time",
      "from_account": "From account",
      "from_address": "From address",
      "to_account": "To account",
      "to_address": "To address",
      "token": "Token",
      "amount": "Amount",
      "id": "Id"
    },
    "_links": {
      "self": {
        "href": "https://stage.relictum.pro/cabinet?r=transactions%2Fview&hash=bb848fa03f188ce12c563d0553d550d2d6fe64829e8c05a9d9af4fbda0117995"
      },
      "from": {
        "href": "https://stage.relictum.pro/cabinet?r=addresses%2Fview&hash=lmmktxM2SBEHyaR1mnnluyN3TCFK4hX7"
      },
      "to": {
        "href": "https://stage.relictum.pro/cabinet?r=addresses%2Fview&hash=oEsfumnCLLUSjHEopFtgvnoDMMVWoJKv"
      }
    }
  }, {
    "hash": "22c254fe131ec628a1113f0708f8d29b02d8e9815ff6879f66adc095fa707355",
    "time": "2022-01-26T20:30:04.000Z",
    "from_account": 2,
    "from_address": "rFTtauopViKxolKFsHUubvpqWjLypmLK",
    "to_account": 2992,
    "to_address": "WmTgHf39NfAngx7qXnUhJg4APgBoj8Jt",
    "token": "USDR",
    "amount": 4,
    "chain_type": "transactions",
    "chain_network": "main",
    "id": 745376,
    "fields": {
      "hash": "Hash",
      "time": "Time",
      "from_account": "From account",
      "from_address": "From address",
      "to_account": "To account",
      "to_address": "To address",
      "token": "Token",
      "amount": "Amount",
      "id": "Id"
    },
    "_links": {
      "self": {
        "href": "https://stage.relictum.pro/cabinet?r=transactions%2Fview&hash=22c254fe131ec628a1113f0708f8d29b02d8e9815ff6879f66adc095fa707355"
      },
      "from": {
        "href": "https://stage.relictum.pro/cabinet?r=addresses%2Fview&hash=rFTtauopViKxolKFsHUubvpqWjLypmLK"
      },
      "to": {
        "href": "https://stage.relictum.pro/cabinet?r=addresses%2Fview&hash=WmTgHf39NfAngx7qXnUhJg4APgBoj8Jt"
      }
    }
  }, {
    "hash": "4f6c688e31ad6185cccf170222934348d7ce1f7035554a47c8439672e714f643",
    "time": "2022-01-26T20:30:04.000Z",
    "from_account": 2992,
    "from_address": "WmTgHf39NfAngx7qXnUhJg4APgBoj8Jt",
    "to_account": 3,
    "to_address": "iWF6Eysihp30NDW8jXH7F0tjiq41PEXC",
    "token": "USDR",
    "amount": 0,
    "chain_type": "transactions",
    "chain_network": "main",
    "id": 745375,
    "fields": {
      "hash": "Hash",
      "time": "Time",
      "from_account": "From account",
      "from_address": "From address",
      "to_account": "To account",
      "to_address": "To address",
      "token": "Token",
      "amount": "Amount",
      "id": "Id"
    },
    "_links": {
      "self": {
        "href": "https://stage.relictum.pro/cabinet?r=transactions%2Fview&hash=4f6c688e31ad6185cccf170222934348d7ce1f7035554a47c8439672e714f643"
      },
      "from": {
        "href": "https://stage.relictum.pro/cabinet?r=addresses%2Fview&hash=WmTgHf39NfAngx7qXnUhJg4APgBoj8Jt"
      },
      "to": {
        "href": "https://stage.relictum.pro/cabinet?r=addresses%2Fview&hash=iWF6Eysihp30NDW8jXH7F0tjiq41PEXC"
      }
    }
  }, {
    "hash": "09752567778cc2d229b9fc24258a5179326b0896cdb016312ae44faa4eb6881f",
    "time": "2022-01-26T20:29:58.000Z",
    "from_account": 2,
    "from_address": "rFTtauopViKxolKFsHUubvpqWjLypmLK",
    "to_account": 3,
    "to_address": "iWF6Eysihp30NDW8jXH7F0tjiq41PEXC",
    "token": "USDR",
    "amount": 0,
    "chain_type": "transactions",
    "chain_network": "main",
    "id": 745374,
    "fields": {
      "hash": "Hash",
      "time": "Time",
      "from_account": "From account",
      "from_address": "From address",
      "to_account": "To account",
      "to_address": "To address",
      "token": "Token",
      "amount": "Amount",
      "id": "Id"
    },
    "_links": {
      "self": {
        "href": "https://stage.relictum.pro/cabinet?r=transactions%2Fview&hash=09752567778cc2d229b9fc24258a5179326b0896cdb016312ae44faa4eb6881f"
      },
      "from": {
        "href": "https://stage.relictum.pro/cabinet?r=addresses%2Fview&hash=rFTtauopViKxolKFsHUubvpqWjLypmLK"
      },
      "to": {
        "href": "https://stage.relictum.pro/cabinet?r=addresses%2Fview&hash=iWF6Eysihp30NDW8jXH7F0tjiq41PEXC"
      }
    }
  }, {
    "hash": "47dd88295d161c2c9c797a4d4b339b43c2f87f024f1f88bd161aeba1c98b2f92",
    "time": "2022-01-26T20:29:58.000Z",
    "from_account": 2992,
    "from_address": "WmTgHf39NfAngx7qXnUhJg4APgBoj8Jt",
    "to_account": 2,
    "to_address": "rFTtauopViKxolKFsHUubvpqWjLypmLK",
    "token": "USDR",
    "amount": 1,
    "chain_type": "transactions",
    "chain_network": "main",
    "id": 745373,
    "fields": {
      "hash": "Hash",
      "time": "Time",
      "from_account": "From account",
      "from_address": "From address",
      "to_account": "To account",
      "to_address": "To address",
      "token": "Token",
      "amount": "Amount",
      "id": "Id"
    },
    "_links": {
      "self": {
        "href": "https://stage.relictum.pro/cabinet?r=transactions%2Fview&hash=47dd88295d161c2c9c797a4d4b339b43c2f87f024f1f88bd161aeba1c98b2f92"
      },
      "from": {
        "href": "https://stage.relictum.pro/cabinet?r=addresses%2Fview&hash=WmTgHf39NfAngx7qXnUhJg4APgBoj8Jt"
      },
      "to": {
        "href": "https://stage.relictum.pro/cabinet?r=addresses%2Fview&hash=rFTtauopViKxolKFsHUubvpqWjLypmLK"
      }
    }
  }, {
    "hash": "3fcb09cad95a0fa3d7a5c28669883bf3a64a58578f651d018549ad250a40733f",
    "time": "2022-01-26T20:29:19.000Z",
    "from_account": 2,
    "from_address": "rFTtauopViKxolKFsHUubvpqWjLypmLK",
    "to_account": 2992,
    "to_address": "WmTgHf39NfAngx7qXnUhJg4APgBoj8Jt",
    "token": "USDR",
    "amount": 0,
    "chain_type": "transactions",
    "chain_network": "main",
    "id": 745372,
    "fields": {
      "hash": "Hash",
      "time": "Time",
      "from_account": "From account",
      "from_address": "From address",
      "to_account": "To account",
      "to_address": "To address",
      "token": "Token",
      "amount": "Amount",
      "id": "Id"
    },
    "_links": {
      "self": {
        "href": "https://stage.relictum.pro/cabinet?r=transactions%2Fview&hash=3fcb09cad95a0fa3d7a5c28669883bf3a64a58578f651d018549ad250a40733f"
      },
      "from": {
        "href": "https://stage.relictum.pro/cabinet?r=addresses%2Fview&hash=rFTtauopViKxolKFsHUubvpqWjLypmLK"
      },
      "to": {
        "href": "https://stage.relictum.pro/cabinet?r=addresses%2Fview&hash=WmTgHf39NfAngx7qXnUhJg4APgBoj8Jt"
      }
    }
  }, {
    "hash": "f8a31767a875f8cb7e72e42168dd7a63243071f2c8ff14aa591125c19fb50074",
    "time": "2022-01-26T20:29:19.000Z",
    "from_account": 2992,
    "from_address": "WmTgHf39NfAngx7qXnUhJg4APgBoj8Jt",
    "to_account": 3,
    "to_address": "iWF6Eysihp30NDW8jXH7F0tjiq41PEXC",
    "token": "USDR",
    "amount": 0,
    "chain_type": "transactions",
    "chain_network": "main",
    "id": 745371,
    "fields": {
      "hash": "Hash",
      "time": "Time",
      "from_account": "From account",
      "from_address": "From address",
      "to_account": "To account",
      "to_address": "To address",
      "token": "Token",
      "amount": "Amount",
      "id": "Id"
    },
    "_links": {
      "self": {
        "href": "https://stage.relictum.pro/cabinet?r=transactions%2Fview&hash=f8a31767a875f8cb7e72e42168dd7a63243071f2c8ff14aa591125c19fb50074"
      },
      "from": {
        "href": "https://stage.relictum.pro/cabinet?r=addresses%2Fview&hash=WmTgHf39NfAngx7qXnUhJg4APgBoj8Jt"
      },
      "to": {
        "href": "https://stage.relictum.pro/cabinet?r=addresses%2Fview&hash=iWF6Eysihp30NDW8jXH7F0tjiq41PEXC"
      }
    }
  }, {
    "hash": "bf4711d0a2cc6374ac1f5e3477f348f3b030488888e025071a216ab14d165834",
    "time": "2022-01-26T20:21:49.000Z",
    "from_account": 34874,
    "from_address": "01MLSaJ7geRRjpm012NMTbK8hfSVoyu5",
    "to_account": 30412,
    "to_address": "w23W2prt1WsxKb78x34X3qsu2Xt2Lg9B",
    "token": "GTN",
    "amount": 100000,
    "chain_type": "transactions",
    "chain_network": "main",
    "id": 745370,
    "fields": {
      "hash": "Hash",
      "time": "Time",
      "from_account": "From account",
      "from_address": "From address",
      "to_account": "To account",
      "to_address": "To address",
      "token": "Token",
      "amount": "Amount",
      "id": "Id"
    },
    "_links": {
      "self": {
        "href": "https://stage.relictum.pro/cabinet?r=transactions%2Fview&hash=bf4711d0a2cc6374ac1f5e3477f348f3b030488888e025071a216ab14d165834"
      },
      "from": {
        "href": "https://stage.relictum.pro/cabinet?r=addresses%2Fview&hash=01MLSaJ7geRRjpm012NMTbK8hfSVoyu5"
      },
      "to": {
        "href": "https://stage.relictum.pro/cabinet?r=addresses%2Fview&hash=w23W2prt1WsxKb78x34X3qsu2Xt2Lg9B"
      }
    }
  }, {
    "hash": "a3b58521e48fbe038e6fd0f608561956d640998bfff5885a077c349108933249",
    "time": "2022-01-26T20:18:54.000Z",
    "from_account": 30412,
    "from_address": "w23W2prt1WsxKb78x34X3qsu2Xt2Lg9B",
    "to_account": 34874,
    "to_address": "01MLSaJ7geRRjpm012NMTbK8hfSVoyu5",
    "token": "GTN",
    "amount": 100000,
    "chain_type": "transactions",
    "chain_network": "main",
    "id": 745369,
    "fields": {
      "hash": "Hash",
      "time": "Time",
      "from_account": "From account",
      "from_address": "From address",
      "to_account": "To account",
      "to_address": "To address",
      "token": "Token",
      "amount": "Amount",
      "id": "Id"
    },
    "_links": {
      "self": {
        "href": "https://stage.relictum.pro/cabinet?r=transactions%2Fview&hash=a3b58521e48fbe038e6fd0f608561956d640998bfff5885a077c349108933249"
      },
      "from": {
        "href": "https://stage.relictum.pro/cabinet?r=addresses%2Fview&hash=w23W2prt1WsxKb78x34X3qsu2Xt2Lg9B"
      },
      "to": {
        "href": "https://stage.relictum.pro/cabinet?r=addresses%2Fview&hash=01MLSaJ7geRRjpm012NMTbK8hfSVoyu5"
      }
    }
  }],
  "pagination": {
    "page": 1,
    "pageSize": 10,
    "pageCount": 74299,
    "total": 742982
  }
}